<svg xmlns="http://www.w3.org/2000/svg" xmlns:xlink="http://www.w3.org/1999/xlink" preserveAspectRatio="xMidYMid" width="50" height="50" viewBox="0 0 50 50">
  <defs>
    <style>
      .cls-1 {
        fill: #fff;
        fill-rule: evenodd;
      }
    </style>
  </defs>
  <path d="M35.038,46.000 L15.962,46.000 C12.623,46.000 10.000,43.347 10.000,39.971 L10.000,11.029 C10.000,7.653 12.623,5.000 15.962,5.000 L24.546,5.000 C25.500,5.000 26.454,5.482 27.169,5.965 L40.046,18.988 C40.762,19.712 41.000,20.677 41.000,21.641 L41.000,39.971 C41.000,43.347 38.377,46.000 35.038,46.000 ZM26.692,8.859 L26.692,15.853 C26.692,17.782 28.362,19.471 30.269,19.471 L37.185,19.471 L26.692,8.859 ZM38.615,21.882 L30.269,21.882 C26.931,21.882 24.308,19.229 24.308,15.853 L24.308,7.412 L15.962,7.412 C14.054,7.412 12.385,9.100 12.385,11.029 L12.385,39.971 C12.385,41.900 14.054,43.588 15.962,43.588 L35.038,43.588 C36.946,43.588 38.615,41.900 38.615,39.971 L38.615,21.882 ZM30.269,32.012 L26.692,32.012 L26.692,35.630 C26.692,36.353 26.215,36.836 25.500,36.836 C24.785,36.836 24.308,36.353 24.308,35.630 L24.308,32.012 L20.731,32.012 C20.015,32.012 19.538,31.530 19.538,30.806 C19.538,30.082 20.015,29.600 20.731,29.600 L24.308,29.600 L24.308,25.982 C24.308,25.259 24.785,24.777 25.500,24.777 C26.215,24.777 26.692,25.259 26.692,25.982 L26.692,29.600 L30.269,29.600 C30.985,29.600 31.462,30.082 31.462,30.806 C31.462,31.530 30.985,32.012 30.269,32.012 Z" class="cls-1"/>
</svg>
