<?xml version="1.0" encoding="UTF-8" standalone="no"?>
<svg width="713px" height="401px" viewBox="0 0 713 401" version="1.1" xmlns="http://www.w3.org/2000/svg" xmlns:xlink="http://www.w3.org/1999/xlink" xmlns:sketch="http://www.bohemiancoding.com/sketch/ns">
    <!-- Generator: Sketch 3.3.2 (12043) - http://www.bohemiancoding.com/sketch -->
    <title>featured-thumb-link</title>
    <desc>Created with Sketch.</desc>
    <defs></defs>
    <g id="Page-1" stroke="none" stroke-width="1" fill="none" fill-rule="evenodd" sketch:type="MSPage">
        <g id="featured-thumb-link" sketch:type="MSArtboardGroup">
            <rect id="bg" fill="#E4E4E4" sketch:type="MSShapeGroup" x="0" y="0" width="713" height="401"></rect>
            <g id="link" sketch:type="MSLayerGroup" transform="translate(312.000000, 157.000000)" fill="#A5A5A5">
                <path d="M53,68 C53.652,68 54.299,67.98 54.941,67.941 C54.63,68.291 54.306,68.634 53.97,68.97 L41.97,80.97 C32.597,90.343 17.401,90.343 8.029,80.97 C-1.344,71.597 -1.344,56.402 8.029,47.029 L20.029,35.029 C20.365,34.694 20.708,34.37 21.057,34.058 C28.413,27.51 38.831,26.27 47.347,30.337 C49.742,31.482 51.988,33.045 53.97,35.028 C55.954,37.011 57.517,39.257 58.661,41.651 C57.215,43.102 55.211,44 53,44 C52.184,44 51.395,43.878 50.652,43.65 C50.006,42.595 49.226,41.599 48.314,40.686 C47.4,39.773 46.404,38.994 45.35,38.347 C39.188,34.571 31.022,35.35 25.686,40.686 L22.084,44.289 L13.686,52.686 C7.438,58.934 7.438,69.065 13.686,75.315 C19.935,81.563 30.066,81.563 36.314,75.315 L44.711,66.917 C47.355,67.623 50.135,68 53,68 L53,68 Z M81.971,7.029 C72.598,-2.343 57.403,-2.343 48.03,7.029 L36.03,19.029 C35.694,19.365 35.371,19.708 35.059,20.058 C35.702,20.019 36.348,20 37,20 C39.866,20 42.645,20.377 45.288,21.084 L53.685,12.687 C59.935,6.438 70.066,6.438 76.314,12.687 C82.562,18.935 82.562,29.066 76.314,35.315 L67.916,43.712 L64.314,47.315 C58.978,52.649 50.812,53.428 44.649,49.653 C43.594,49.007 42.599,48.227 41.685,47.315 C40.772,46.401 39.993,45.405 39.347,44.351 C38.606,44.123 37.817,44 37,44 C34.788,44 32.786,44.897 31.338,46.348 C32.483,48.743 34.046,50.987 36.029,52.971 C38.012,54.953 40.257,56.518 42.651,57.662 C51.167,61.73 61.585,60.49 68.941,53.941 C69.293,53.629 69.634,53.306 69.97,52.97 L81.97,40.97 C91.344,31.597 91.344,16.402 81.971,7.029 L81.971,7.029 Z" id="Shape" sketch:type="MSShapeGroup"></path>
            </g>
        </g>
    </g>
</svg>